X1:  | C13+ |
X2:  |
X3:  | C2+ | C11- |
X4:  | C1+ | C16+ | C17+ |
X5:  | C2- | C3- | C7+ | C9- |
X6:  | C12- |
X7:  | C4+ | C5- | C16+ | C18+ | C19- |
X8:  | C3- | C12- | C16- | C17- | C20+ |
X9:  | C6- | C8+ | C17- |
X10:  | C5+ | C10- | C14+ | C20- |
X11:  | C9+ | C11+ | C20- |
X12:  | C6- | C11+ | C15+ | C19+ |
X13:  | C5- | C10+ |
X14:  | C9- | C13+ | C19- |
X15:  | C3- | C8+ | C14- | C18- |
X16:  | C4- | C8- |
X17:  | C6+ | C7+ | C12- | C18+ |
X18:  | C1- | C2+ | C10+ | C13- | C15+ |
X19:  | C1+ | C7+ | C14- | C15- |
X20:  | C4- |

