X1:  | C3- | C13- | C16+ | C50+ | C52- | C55- | C56- | C90+ | C107+ | C119+ | C124- | C125+ | C126- | C133+ | C137+ | C141+ | C145- | C147+ | C149- | C150- | C163+ | C172+ | C174- | C196+ | C202- | C205+ | C211+ | C216+ | C227+ | C228+ | C229- | C253- | C255+ | C263+ | C268+ | C287- | C289- | C325- | C332+ | C338+ | C346+ | C349+ | C350- | C352+ | C354+ | C367+ | C373- | C377- | C422- | C427+ | C432+ | C439+ | C460- | C475- | C477+ | C490+ | C501+ | C519- | C532- | C533- | C553- | C567- | C573- | C587+ | C602+ | C605+ | C606- | C614- | C621- | C626+ | C629- | C675+ | C690+ | C696+ | C700- | C704- | C707- | C708+ | C713+ | C715+ | C721- | C723+ | C733- | C751- | C755- | C772- | C779+ | C808- | C811- | C818- | C830+ | C861- | C864+ | C866+ | C878+ | C883- | C892+ | C903+ | C906+ | C910+ | C928- | C948- | C956- | C957- | C972- | C978+ | C984- | C991+ | C996- |
X2:  | C1- | C10- | C22- | C69- | C96- | C102+ | C130- | C208+ | C220+ | C223+ | C231+ | C236- | C239- | C242- | C250- | C276+ | C281+ | C306+ | C307+ | C316- | C331- | C335- | C351+ | C366+ | C374- | C395+ | C417- | C446- | C454+ | C456+ | C457- | C459- | C462+ | C463- | C466- | C478- | C505+ | C506- | C519- | C520- | C554- | C571- | C580- | C596- | C599+ | C612- | C625- | C646+ | C647+ | C673+ | C685- | C704+ | C726+ | C727+ | C746+ | C756+ | C777+ | C783- | C786- | C832+ | C848+ | C849+ | C856+ | C857+ | C859+ | C869+ | C872+ | C876- | C879- | C882+ | C885+ | C893- | C898+ | C901+ | C909- | C912- | C915+ | C918+ | C920- | C934- | C945- | C955- | C970+ | C974- | C985+ |
X3:  | C6+ | C11- | C25+ | C29+ | C35+ | C38- | C39+ | C45- | C56+ | C57- | C63+ | C71- | C72- | C74+ | C83+ | C90+ | C104- | C131+ | C146+ | C159- | C165- | C170- | C180- | C185- | C189+ | C199+ | C209+ | C218+ | C223+ | C224- | C226- | C248+ | C268- | C272+ | C278+ | C300- | C357+ | C367+ | C369+ | C376+ | C377- | C382+ | C385- | C392+ | C414+ | C418- | C419+ | C420- | C427- | C441- | C464- | C469+ | C486+ | C492- | C494- | C497+ | C499+ | C508+ | C515+ | C525+ | C528- | C542+ | C549- | C561+ | C563- | C566- | C569- | C589- | C603- | C621+ | C634+ | C635- | C650- | C659- | C680- | C687+ | C692- | C695- | C706+ | C713- | C755- | C761- | C766+ | C792+ | C806+ | C807- | C810+ | C813+ | C829- | C831- | C835- | C859- | C874+ | C878+ | C947- | C950- | C967- | C974+ | C978+ | C982- | C994- |
X4:  | C12- | C21+ | C30- | C44+ | C46+ | C59- | C61+ | C77- | C78+ | C108- | C127+ | C134- | C139+ | C152+ | C184+ | C198- | C202+ | C214- | C219- | C240- | C248+ | C250- | C252+ | C259- | C266- | C286+ | C300- | C302- | C316- | C317+ | C319- | C326- | C337+ | C339- | C351+ | C389- | C390+ | C395+ | C407- | C453- | C454- | C498- | C512+ | C515- | C519- | C533- | C543+ | C545+ | C557+ | C577+ | C585- | C598+ | C606- | C607- | C609+ | C612- | C623+ | C641- | C645- | C650+ | C665- | C669- | C674- | C695- | C700- | C717+ | C725- | C731+ | C733+ | C736- | C745+ | C748- | C758+ | C793- | C808- | C822- | C823- | C830- | C842+ | C845+ | C852+ | C879+ | C890+ | C913+ | C919- | C931- | C946+ | C950+ | C960- | C975- | C994+ | C999+ |
X5:  | C6- | C31+ | C49+ | C57+ | C61- | C89+ | C90- | C95+ | C96+ | C101- | C108- | C109+ | C137- | C159+ | C161+ | C164- | C178+ | C186+ | C205- | C216+ | C225- | C233+ | C234+ | C241- | C246+ | C264- | C284- | C292- | C304+ | C317- | C336+ | C341+ | C342+ | C353- | C355- | C372+ | C376- | C393+ | C394+ | C414+ | C450+ | C451+ | C469- | C478- | C483- | C495+ | C498+ | C513+ | C518+ | C547+ | C551+ | C575+ | C582+ | C584+ | C604+ | C616+ | C624+ | C633+ | C651+ | C652- | C689- | C707+ | C709- | C722- | C723- | C734+ | C741- | C744- | C753- | C765- | C775- | C782+ | C803+ | C835+ | C850- | C856- | C865+ | C870+ | C877- | C881- | C886+ | C900+ | C905+ | C907- | C929+ | C933- | C940+ | C941- | C944- | C972+ | C981- | C988- | C992- |
X6:  | C2- | C4- | C40- | C58- | C67+ | C69- | C70+ | C77- | C87+ | C91- | C129- | C136+ | C138- | C171+ | C188+ | C191+ | C199- | C200+ | C237- | C238- | C240- | C241+ | C243- | C248+ | C251- | C256- | C264+ | C277- | C293- | C313+ | C319- | C337- | C343- | C355+ | C356+ | C362+ | C363+ | C365- | C371+ | C383+ | C399- | C409+ | C416- | C428+ | C439+ | C443- | C447- | C451+ | C465+ | C466+ | C481+ | C507+ | C526- | C527+ | C529+ | C544+ | C548+ | C551- | C579+ | C580+ | C588- | C590- | C594+ | C601- | C631- | C635+ | C648+ | C658+ | C662+ | C666+ | C679- | C684- | C702- | C704- | C710- | C712+ | C716+ | C724- | C749+ | C764+ | C782- | C787+ | C802+ | C812- | C819- | C834- | C837- | C847- | C858- | C862+ | C863- | C868+ | C873+ | C876+ | C929- | C930- | C937+ | C942+ | C943- | C956+ | C968- | C969+ | C976+ | C979+ | C981+ | C993- |
X7:  | C7+ | C8- | C28+ | C39- | C46+ | C62- | C65+ | C66+ | C70- | C81- | C86+ | C92- | C97+ | C100+ | C121+ | C126+ | C165+ | C179+ | C197+ | C206- | C215- | C217- | C222- | C244+ | C245- | C249+ | C254+ | C255- | C265- | C294- | C302+ | C305+ | C312- | C314- | C324- | C325- | C348- | C360+ | C364+ | C373- | C383+ | C387+ | C400- | C405+ | C420- | C445- | C499+ | C500+ | C534+ | C538+ | C546- | C575+ | C582- | C583- | C585- | C591- | C603+ | C620+ | C640+ | C664- | C666- | C677- | C705+ | C731+ | C739+ | C742+ | C754- | C763+ | C769+ | C794+ | C858- | C862- | C881+ | C891- | C894+ | C898+ | C912+ | C916- | C932- | C938+ | C947+ | C952+ | C958- | C975+ | C977+ | C980+ | C1000+ |
X8:  | C3- | C10- | C24+ | C28- | C31+ | C32- | C34+ | C49+ | C53- | C99+ | C109+ | C122+ | C124- | C125- | C129+ | C140- | C151+ | C169+ | C171+ | C174- | C179+ | C183- | C186- | C195- | C219- | C221- | C237- | C238- | C261- | C269+ | C270- | C274+ | C306- | C310+ | C314- | C331- | C334- | C350+ | C356+ | C359+ | C397- | C408- | C412+ | C420- | C436+ | C437- | C479+ | C487+ | C488+ | C505- | C506+ | C508+ | C543- | C555+ | C561- | C563- | C591- | C596+ | C599+ | C608- | C609- | C647- | C650+ | C665- | C686- | C694- | C696+ | C728+ | C750- | C752+ | C755+ | C763- | C768- | C773- | C783+ | C786+ | C796+ | C797+ | C804- | C810+ | C811+ | C814+ | C828- | C829- | C841- | C855- | C861+ | C866+ | C869- | C885- | C889+ | C895+ | C896+ | C919- | C923+ | C924+ | C931+ | C951- | C957+ | C970+ |
X9:  | C3+ | C23- | C30+ | C59+ | C110- | C112- | C113+ | C118- | C125- | C127- | C132+ | C134- | C142- | C168- | C176+ | C203- | C206+ | C212+ | C223+ | C224+ | C226+ | C243+ | C253+ | C260- | C269- | C270+ | C271+ | C272+ | C280- | C281- | C286+ | C294- | C298+ | C320+ | C349- | C357+ | C380+ | C387- | C397+ | C399- | C410+ | C423+ | C446- | C467- | C473- | C483+ | C510- | C514- | C517- | C520+ | C522+ | C523- | C540+ | C557+ | C564+ | C573+ | C577- | C579- | C596- | C610+ | C615- | C634+ | C638- | C642+ | C653+ | C657- | C685+ | C689+ | C690- | C693+ | C702+ | C711+ | C712+ | C718+ | C736+ | C738- | C749+ | C753+ | C773+ | C791- | C792- | C794- | C796+ | C827+ | C829- | C833+ | C839- | C843- | C851- | C853- | C854- | C906- | C919- | C922+ | C924- | C929- | C934+ | C936- | C941- | C962+ | C968- | C970+ | C971- | C977+ | C985- | C995- | C1000- |
X10:  | C4- | C19- | C24- | C26- | C48+ | C56+ | C62- | C64+ | C68- | C87+ | C91+ | C98- | C106- | C109+ | C115+ | C128+ | C143+ | C148- | C160+ | C167- | C177+ | C182- | C187+ | C198- | C201+ | C231- | C257- | C261- | C262+ | C273+ | C291- | C311+ | C313+ | C315+ | C348- | C353+ | C362- | C363- | C389- | C394- | C398- | C399+ | C422+ | C425- | C435+ | C442- | C444- | C446- | C461- | C467- | C476+ | C500- | C522- | C524+ | C531- | C537+ | C560+ | C563+ | C577- | C595- | C597- | C598+ | C605+ | C608- | C615+ | C617- | C623+ | C662+ | C681- | C683- | C688- | C712+ | C715+ | C726+ | C729- | C732+ | C733+ | C735- | C756+ | C765- | C776- | C779+ | C784+ | C790- | C796+ | C804+ | C809+ | C814+ | C816+ | C827- | C832+ | C844- | C847- | C853- | C857- | C867+ | C870- | C886- | C895- | C897- | C951- | C959+ | C963+ | C995- |
X11:  | C5+ | C9+ | C13+ | C15+ | C27- | C42+ | C45- | C53+ | C54- | C71- | C95- | C96+ | C110+ | C116- | C128- | C139- | C142+ | C153+ | C157- | C173+ | C192- | C194+ | C222+ | C236+ | C258- | C267+ | C273+ | C284+ | C290- | C320+ | C323+ | C326- | C332+ | C352- | C379+ | C381- | C384+ | C404- | C410+ | C425- | C439- | C468- | C472+ | C480+ | C482+ | C491+ | C497- | C498+ | C504- | C525- | C549+ | C572+ | C575+ | C586- | C592- | C593- | C599+ | C600+ | C625+ | C663- | C665+ | C666+ | C668+ | C672- | C695+ | C701+ | C710+ | C723+ | C752- | C757- | C760+ | C783+ | C810- | C814- | C819- | C820- | C821+ | C823- | C834- | C841- | C843- | C868+ | C879+ | C880+ | C884+ | C887- | C892- | C897- | C954+ | C963- | C971+ |
X12:  | C9+ | C13+ | C18+ | C27- | C29- | C34+ | C36+ | C47- | C48+ | C75+ | C76+ | C85+ | C88- | C89+ | C99- | C142+ | C176- | C193- | C196+ | C202+ | C203+ | C204- | C209+ | C210+ | C213+ | C217+ | C220+ | C221- | C227- | C231- | C236+ | C253+ | C288+ | C292+ | C315+ | C338- | C345- | C368- | C388- | C395- | C411- | C428- | C429+ | C430- | C433- | C440- | C445+ | C465+ | C468- | C475- | C494- | C502+ | C509- | C511- | C513- | C516- | C526+ | C529- | C535+ | C549+ | C556- | C557+ | C560+ | C565+ | C568+ | C581- | C587- | C592- | C604+ | C608+ | C619+ | C622- | C625+ | C632+ | C702+ | C715- | C720- | C743+ | C781- | C817+ | C820- | C824+ | C837- | C838+ | C846+ | C883- | C890+ | C901- | C922+ | C942- | C944+ | C945- | C959- | C996- |
X13:  | C1- | C14+ | C18- | C33- | C51+ | C75+ | C114- | C154+ | C183- | C187+ | C194+ | C203+ | C234- | C245- | C265+ | C268+ | C271+ | C277+ | C279+ | C285+ | C286- | C296- | C301- | C311+ | C333- | C341+ | C361- | C364- | C368+ | C370+ | C371- | C381- | C389+ | C401- | C402- | C403- | C431- | C448- | C450- | C454- | C455+ | C475+ | C481- | C489- | C491+ | C495- | C501+ | C523- | C528- | C534- | C536+ | C554- | C564+ | C574+ | C589+ | C615- | C624+ | C626+ | C627- | C643- | C644+ | C661- | C664- | C680+ | C683- | C686- | C687- | C691- | C692+ | C697- | C707- | C716- | C720+ | C727+ | C731+ | C738+ | C741- | C742- | C747+ | C752- | C759- | C779- | C793+ | C795- | C797- | C798- | C800+ | C819- | C822- | C851- | C899+ | C904- | C910- | C912- | C914+ | C948+ | C976- | C983+ | C986- | C987- | C1000- |
X14:  | C5- | C7- | C10- | C20+ | C41- | C42+ | C48+ | C51+ | C68+ | C92+ | C101- | C103- | C115+ | C117- | C128+ | C153+ | C155+ | C158- | C161- | C162+ | C174+ | C192+ | C205+ | C233- | C238- | C243+ | C271- | C277- | C287- | C288- | C311+ | C330+ | C331- | C340+ | C349- | C366- | C376- | C378- | C385+ | C394- | C398+ | C406+ | C407- | C409- | C411- | C413+ | C417- | C429- | C455+ | C462- | C470+ | C471- | C515- | C535- | C539- | C540- | C552+ | C553+ | C558- | C560+ | C561- | C562+ | C567+ | C571+ | C578+ | C583- | C586- | C597- | C614+ | C626+ | C630- | C647- | C649+ | C651+ | C654+ | C675+ | C678+ | C694- | C717- | C727- | C740- | C744- | C746- | C766+ | C776- | C778+ | C787- | C791+ | C812- | C826- | C831- | C851- | C853+ | C861- | C872+ | C873- | C885+ | C891+ | C903+ | C939+ | C940- | C953- | C956- | C966- | C989+ | C993+ | C997- |
X15:  | C8- | C20+ | C21- | C37- | C51+ | C77- | C78+ | C80- | C111- | C112+ | C116- | C135- | C138+ | C141+ | C143- | C152+ | C153- | C158- | C189+ | C199+ | C232+ | C247+ | C260- | C273- | C283+ | C297- | C300+ | C305- | C306+ | C321+ | C322- | C328- | C330+ | C354+ | C398+ | C414- | C415+ | C424- | C426- | C431+ | C438+ | C440+ | C441- | C471- | C490- | C496+ | C497+ | C499+ | C527+ | C530+ | C532- | C536- | C538+ | C539- | C541- | C546+ | C595- | C611- | C617- | C638+ | C639+ | C640+ | C644+ | C657+ | C660+ | C667- | C668+ | C673+ | C674+ | C677+ | C679+ | C692+ | C693- | C708+ | C736- | C761+ | C768+ | C799- | C801+ | C804- | C835+ | C844- | C860- | C868- | C892+ | C898+ | C904- | C909- | C910+ | C913+ | C915- | C916+ | C918- | C926- | C933+ | C936+ | C939+ | C942+ | C957+ | C965+ | C967- | C969- | C982+ |
X16:  | C12- | C23+ | C54- | C60+ | C72+ | C80- | C84- | C113+ | C123- | C126+ | C158+ | C166+ | C167- | C168+ | C172- | C179+ | C184- | C188+ | C191- | C194+ | C220- | C230- | C252+ | C258- | C279- | C297+ | C298- | C301+ | C304+ | C308- | C309- | C333+ | C356+ | C357+ | C374+ | C387+ | C415+ | C421+ | C423- | C424+ | C425+ | C430+ | C435+ | C443+ | C447+ | C469+ | C476- | C488- | C493- | C494+ | C503+ | C528- | C537+ | C562- | C591- | C603- | C605- | C620- | C622- | C627- | C637- | C656- | C662- | C669- | C670+ | C671+ | C673+ | C678+ | C687- | C688- | C691- | C705+ | C716- | C738+ | C749- | C756+ | C757- | C762- | C764- | C767- | C769- | C789- | C790- | C794- | C803+ | C807- | C834- | C845+ | C859+ | C860- | C867- | C878- | C888- | C890+ | C925+ | C933+ | C947- | C958+ | C964- | C973- | C989- | C991+ | C992+ | C998- |
X17:  | C22- | C54- | C74+ | C78- | C83+ | C85- | C88- | C91- | C104+ | C115- | C118- | C123+ | C130+ | C138+ | C148+ | C161- | C162- | C166+ | C190- | C200- | C215- | C226- | C230- | C233- | C235+ | C245- | C267+ | C284- | C295+ | C297- | C315+ | C322+ | C339- | C344- | C358+ | C386+ | C401+ | C431+ | C433- | C436- | C450- | C453+ | C468- | C484- | C486+ | C492+ | C493- | C503- | C523- | C527+ | C540+ | C550- | C552+ | C564- | C566+ | C571+ | C573- | C579- | C582+ | C583+ | C584+ | C585+ | C600- | C602+ | C604+ | C609+ | C632- | C641+ | C659+ | C671- | C719+ | C729+ | C764+ | C766+ | C771+ | C791- | C793- | C801+ | C838- | C846- | C848+ | C858+ | C871- | C884+ | C888+ | C893- | C932+ | C938- | C944+ | C949- | C959- | C962+ | C967- | C968+ |
X18:  | C6+ | C39+ | C44- | C59+ | C62+ | C73- | C81- | C92- | C94- | C103+ | C117+ | C120+ | C127+ | C130- | C134- | C135- | C137+ | C145+ | C154+ | C160+ | C162- | C163- | C188+ | C218+ | C229+ | C246+ | C254- | C266- | C275- | C278- | C279+ | C283- | C285- | C290- | C298- | C299+ | C322+ | C323- | C324- | C327- | C348+ | C368- | C374+ | C383+ | C391- | C396- | C401- | C403- | C405+ | C412+ | C413+ | C419+ | C437+ | C452- | C470+ | C472+ | C485- | C486+ | C487- | C505- | C512+ | C517- | C521- | C530- | C556+ | C558- | C567- | C568+ | C569+ | C572+ | C576+ | C600+ | C612- | C617- | C619- | C622+ | C628+ | C631- | C649+ | C658- | C680+ | C682- | C690+ | C721- | C724+ | C732+ | C734+ | C739- | C770- | C781+ | C790- | C795+ | C799+ | C805- | C817+ | C848+ | C854+ | C864+ | C865- | C905- | C906- | C908- | C925+ | C930- | C936- | C938- | C943+ | C960- | C984- | C996+ | C998- |
X19:  | C2+ | C12- | C17- | C31+ | C33+ | C43- | C55- | C61- | C79+ | C85- | C86- | C93- | C129- | C131+ | C144- | C176+ | C191+ | C192- | C210+ | C212+ | C215+ | C229- | C239+ | C240- | C242- | C259+ | C266+ | C274+ | C276- | C289- | C293- | C310+ | C312- | C319- | C324+ | C327- | C329- | C339- | C346+ | C358+ | C380+ | C384- | C396+ | C402+ | C408+ | C434- | C448- | C449+ | C456+ | C464- | C484+ | C490- | C512- | C514- | C529- | C530+ | C542+ | C544- | C556+ | C570+ | C584- | C587+ | C611- | C614- | C628+ | C629+ | C653+ | C655+ | C661- | C668+ | C670- | C676+ | C681- | C699+ | C711- | C718+ | C719+ | C730+ | C739+ | C740- | C808+ | C816+ | C831+ | C862+ | C873- | C881+ | C902+ | C905- | C917+ | C920+ | C943- | C952+ | C962- | C964- | C977+ | C981- | C990+ |
X20:  | C14+ | C16- | C19- | C26+ | C28+ | C67- | C68+ | C69+ | C76+ | C83+ | C84- | C86- | C113- | C173+ | C175+ | C183- | C190- | C193- | C211- | C212+ | C224- | C251+ | C252+ | C257- | C274- | C278- | C280- | C282+ | C320- | C329+ | C330- | C338- | C340- | C344- | C351- | C352+ | C358- | C362+ | C375+ | C390+ | C391+ | C410+ | C422+ | C440+ | C447+ | C451+ | C458- | C459- | C461- | C465- | C476+ | C482- | C489+ | C493+ | C496+ | C501+ | C516- | C543+ | C551+ | C559+ | C565- | C570+ | C572+ | C578+ | C586+ | C636- | C659+ | C660+ | C667+ | C669- | C672+ | C676+ | C678+ | C679- | C682- | C683+ | C705- | C717- | C718- | C721- | C722- | C724- | C743+ | C750- | C758- | C761+ | C763- | C772+ | C774- | C785- | C809- | C826+ | C827- | C833+ | C837- | C849- | C854- | C863- | C871- | C874+ | C875- | C882+ | C887+ | C889+ | C891- | C894+ | C899+ | C921- | C924- | C927+ | C931+ | C949+ | C975+ | C997- | C999+ |
X21:  | C19- | C21- | C24+ | C27- | C30- | C36- | C50- | C64+ | C80- | C93+ | C97+ | C106- | C117- | C136+ | C146- | C156+ | C173- | C175- | C180+ | C195+ | C232- | C235- | C247+ | C255+ | C258+ | C261+ | C296- | C305- | C307- | C336- | C366+ | C382- | C427- | C449- | C457+ | C464+ | C474+ | C516- | C531- | C532- | C558- | C576+ | C581+ | C589- | C618+ | C633- | C637+ | C640- | C643- | C646+ | C658- | C661- | C663- | C672- | C674+ | C693+ | C697- | C703+ | C708+ | C722- | C725- | C730+ | C737+ | C757+ | C767+ | C784- | C786+ | C789- | C798+ | C812+ | C815- | C821+ | C825- | C840- | C844+ | C845- | C894+ | C896- | C900+ | C907+ | C909- | C935+ | C937- | C940- | C965- | C966- | C983- | C988+ |
X22:  | C15- | C16+ | C23+ | C25+ | C32- | C43- | C46- | C50- | C58- | C60- | C63- | C65- | C67- | C70+ | C73+ | C82+ | C105- | C121- | C140+ | C145+ | C148+ | C149- | C163- | C177- | C180- | C182- | C184+ | C207+ | C246+ | C263+ | C282- | C287- | C291+ | C308- | C309+ | C340- | C343- | C354+ | C363- | C370+ | C372+ | C375- | C378- | C379+ | C392- | C393+ | C400+ | C406+ | C413- | C418- | C438- | C455+ | C458- | C459+ | C461- | C474- | C477- | C479+ | C492- | C503+ | C504- | C510- | C511+ | C514- | C522- | C531- | C550- | C555- | C593- | C607+ | C616- | C621- | C628+ | C635+ | C645+ | C646- | C656- | C676- | C694+ | C696- | C737+ | C740+ | C751- | C780+ | C836+ | C846+ | C870- | C875+ | C911- | C937+ | C948+ | C953+ | C958- | C963+ | C983- | C990- |
X23:  | C35- | C37+ | C40- | C41+ | C44- | C45+ | C64+ | C71- | C75- | C82- | C98- | C101- | C103+ | C106- | C112+ | C114+ | C120+ | C168- | C177+ | C181+ | C185- | C197+ | C201- | C230+ | C264+ | C280+ | C293- | C295- | C303+ | C308- | C326+ | C336+ | C359- | C379+ | C388+ | C392- | C412+ | C442- | C444+ | C458+ | C460- | C480- | C507+ | C518- | C524+ | C533+ | C566+ | C578- | C581- | C590+ | C593+ | C610+ | C630- | C632- | C636+ | C642- | C651- | C652- | C667- | C670+ | C677- | C684- | C697- | C703+ | C720- | C729- | C735- | C746- | C759- | C770- | C775- | C776+ | C782+ | C784+ | C788+ | C795+ | C799+ | C820+ | C828+ | C836- | C838+ | C855+ | C867- | C895- | C911+ | C915- | C916+ | C922- | C927+ | C930+ | C932+ | C939- | C949+ | C951- | C955- | C969+ | C986+ | C987- | C988- | C993+ | C999+ |
X24:  | C22+ | C36- | C38- | C47- | C53- | C66- | C79- | C81- | C89- | C99+ | C107+ | C116- | C143+ | C155+ | C166- | C186+ | C201+ | C207+ | C210+ | C213+ | C232- | C239+ | C250+ | C262- | C263- | C269+ | C285+ | C288- | C290- | C299+ | C316+ | C318+ | C333+ | C334+ | C347- | C367+ | C372- | C381+ | C388- | C402- | C409- | C417+ | C418+ | C426- | C428+ | C467- | C478- | C479- | C517+ | C521+ | C535+ | C545+ | C552- | C555+ | C569- | C619+ | C627- | C636- | C639- | C663+ | C699+ | C706+ | C709- | C710+ | C726- | C728- | C732- | C748+ | C750- | C760+ | C771- | C772+ | C778- | C780- | C801- | C802- | C815+ | C847- | C852+ | C855+ | C866+ | C875- | C876+ | C877- | C882+ | C884- | C897+ | C899+ | C900- | C902+ | C903+ | C904+ | C908+ | C917- | C950+ | C955- | C964+ | C966- |
X25:  | C17- | C20- | C32- | C49+ | C58+ | C63- | C74- | C88- | C94+ | C97- | C98+ | C100+ | C102+ | C119- | C136+ | C140- | C141+ | C144- | C150+ | C157+ | C164+ | C165+ | C170+ | C171- | C172- | C185+ | C206- | C214- | C218- | C262- | C265+ | C272+ | C294- | C313+ | C318- | C323- | C325- | C334- | C342+ | C347+ | C369+ | C375+ | C382- | C386+ | C396- | C404+ | C421+ | C434- | C441- | C448- | C462+ | C472+ | C473+ | C483+ | C504- | C507+ | C509- | C511- | C521- | C536- | C550+ | C553+ | C559- | C568+ | C580- | C611- | C618- | C629+ | C639+ | C642- | C655- | C657- | C660+ | C671- | C675+ | C700+ | C714- | C719- | C725+ | C728- | C745- | C751+ | C762- | C774+ | C781+ | C785- | C803- | C815- | C817- | C818+ | C821+ | C823+ | C830+ | C833- | C841- | C842- | C856- | C883- | C888- | C889+ | C902- | C921+ | C923+ | C935- | C941- | C961+ | C971- | C979+ | C980+ | C985+ | C987- | C989+ | C994+ |
X26:  | C4- | C8- | C9- | C14+ | C15+ | C17- | C40- | C52- | C66+ | C79- | C87- | C94- | C107- | C110+ | C111- | C121+ | C122+ | C133- | C135+ | C147+ | C155+ | C159- | C167+ | C169- | C170+ | C182- | C200- | C204+ | C208+ | C211- | C228- | C241- | C244- | C247- | C275+ | C282- | C295+ | C296+ | C302+ | C304+ | C312+ | C318- | C321+ | C346+ | C361+ | C365- | C369- | C370+ | C377+ | C378- | C390+ | C391+ | C429+ | C432- | C433+ | C435+ | C437- | C466- | C477- | C484+ | C485- | C509- | C510- | C513+ | C520+ | C534+ | C541+ | C542- | C546- | C547+ | C574- | C576+ | C588+ | C606+ | C607+ | C613+ | C630+ | C634+ | C645+ | C681+ | C689- | C691- | C698- | C703- | C714+ | C730- | C747- | C754- | C771- | C788+ | C805+ | C807- | C824+ | C825- | C839+ | C842- | C863- | C864- | C865+ | C874+ | C887+ | C911+ | C913+ | C914+ | C920- | C921- | C926+ | C953+ | C972- | C973- | C982- | C986- | C995+ |
X27:  | C1- | C11+ | C38+ | C43+ | C47+ | C52+ | C93- | C102- | C104+ | C105- | C108- | C119- | C132- | C133- | C146- | C149+ | C151+ | C154- | C178+ | C209+ | C217+ | C225+ | C249- | C275+ | C283+ | C292+ | C299+ | C309- | C314+ | C321+ | C328+ | C329+ | C343- | C344+ | C345+ | C364+ | C380+ | C393+ | C397+ | C407- | C416+ | C436- | C453- | C463- | C473+ | C480+ | C482- | C491- | C495+ | C518- | C538- | C539+ | C547- | C548- | C592- | C594+ | C610+ | C613+ | C618+ | C620- | C633- | C638+ | C641- | C652+ | C655- | C656- | C685- | C698- | C741+ | C742+ | C753+ | C754+ | C767+ | C770+ | C777- | C778- | C785+ | C787+ | C800+ | C802+ | C806- | C839+ | C843+ | C849+ | C850+ | C857- | C869+ | C877+ | C896- | C907+ | C918- | C934+ | C952+ | C974+ | C978- | C979- |
X28:  | C2- | C18+ | C33- | C34+ | C35- | C73+ | C76+ | C82+ | C95+ | C105+ | C114+ | C139+ | C144- | C150+ | C151+ | C157+ | C178- | C196- | C204+ | C222- | C225+ | C227- | C234+ | C235+ | C237+ | C251+ | C256+ | C259- | C276+ | C303+ | C310+ | C328+ | C341- | C353+ | C359- | C365+ | C371+ | C384+ | C385+ | C404- | C405- | C415+ | C416- | C419- | C421- | C434- | C442- | C443- | C449+ | C463- | C471+ | C488+ | C500+ | C525- | C541- | C544- | C574+ | C597+ | C602+ | C624- | C631- | C643+ | C654+ | C699- | C701+ | C735+ | C743+ | C745+ | C748+ | C760+ | C768+ | C774+ | C775- | C780+ | C805- | C809+ | C813- | C818- | C825+ | C826+ | C840+ | C880- | C901- | C914+ | C927- | C928- | C946- | C954+ | C960+ | C961- | C973+ | C980+ | C990- |
X29:  | C7- | C25- | C26- | C37+ | C41+ | C57+ | C84- | C120- | C123- | C124+ | C132+ | C156+ | C160+ | C164- | C175- | C181- | C193- | C197+ | C198+ | C207+ | C216+ | C219- | C221+ | C228+ | C242+ | C257+ | C267- | C270- | C317- | C332- | C335- | C337+ | C342+ | C347- | C355- | C360- | C386+ | C400- | C403+ | C408- | C423- | C424+ | C430- | C438- | C444+ | C452+ | C457- | C460- | C474- | C481- | C485+ | C487+ | C489+ | C502- | C554- | C562- | C565- | C570- | C594+ | C595- | C598+ | C601+ | C613- | C616+ | C623- | C648- | C649- | C654- | C664+ | C684- | C688- | C701- | C706+ | C709- | C711- | C758+ | C762+ | C765- | C769- | C773+ | C797- | C798- | C813+ | C816- | C822- | C850+ | C852- | C871- | C872+ | C880+ | C886- | C893+ | C908+ | C917+ | C923+ | C925- | C976- | C991- | C997+ | C998- |
X30:  | C5+ | C11- | C29- | C42+ | C55- | C60+ | C65- | C72- | C100- | C111+ | C118- | C122- | C131+ | C147- | C152- | C156+ | C169- | C181- | C187- | C189- | C190+ | C195- | C208+ | C213- | C214- | C244+ | C249- | C254+ | C256+ | C260+ | C281- | C289+ | C291- | C301- | C303+ | C307- | C327- | C335+ | C345+ | C350+ | C360- | C361- | C373- | C406- | C411- | C426+ | C432+ | C445+ | C452+ | C456+ | C470- | C496+ | C502+ | C506- | C508- | C524- | C526- | C537- | C545+ | C548- | C559- | C588- | C590- | C601+ | C637- | C644+ | C648- | C653+ | C682+ | C686- | C698+ | C713- | C714+ | C734+ | C737+ | C744+ | C747- | C759+ | C777- | C788+ | C789+ | C792+ | C800- | C806- | C811+ | C824- | C828- | C832+ | C836- | C840+ | C860- | C926+ | C928- | C935+ | C945- | C946- | C954- | C961+ | C965+ | C984+ | C992+ |

