X1:  | C6- | C16+ | C26- | C39- | C45+ | C51+ | C62+ | C64- | C72- | C73+ | C74+ | C89- | C96+ | C99- | C110+ | C112- | C116+ | C120+ | C132+ | C134+ | C137- | C142+ | C144+ | C153+ | C156+ | C157+ | C162- | C166+ | C170+ | C172- | C173- | C175- | C184+ | C191+ | C194- | C195+ | C196+ | C198+ | C214- | C215+ | C221+ | C227- | C234+ | C239+ | C242+ | C244+ | C245+ | C255- | C258+ | C265+ | C267- | C279- | C283- | C285+ | C286- | C292- | C294+ | C308+ | C310+ | C320+ | C325+ | C328- | C342- | C343+ | C354+ | C369- | C380- | C384- | C385- | C400- | C401+ | C405+ | C406+ | C408- | C419+ | C423- | C436+ | C443+ | C448+ | C468- | C477- | C486- | C490+ | C498- | C500+ | C506- | C514+ | C515- | C517+ | C523+ | C529+ | C532- | C535+ | C537+ | C542- | C546+ | C548- | C551+ | C554- | C556+ | C567+ | C570+ | C572+ | C579+ | C588- | C590+ | C595+ | C599+ | C617- | C620- | C623+ | C629- | C631- | C633- | C644+ | C645- | C648- | C656+ | C670- | C676- | C691- | C711- | C734- | C741- | C749+ | C762- | C772+ | C775- | C790+ | C793+ | C795- | C801+ | C803- | C806+ | C813- | C817+ | C826- | C837- | C840- | C843- | C850- | C858- | C860- | C867- | C870- | C884- | C889- | C891- | C915- | C920- | C923- | C929- | C940+ | C942- | C945- | C958+ | C959- | C965+ | C967+ | C968- | C979+ | C982+ | C992+ |
X2:  | C1- | C10- | C11- | C29- | C37- | C44- | C47+ | C59- | C75- | C80+ | C87- | C91+ | C109+ | C115- | C119+ | C123+ | C124+ | C127- | C129- | C158- | C163- | C164+ | C167+ | C186+ | C200- | C209- | C212+ | C214+ | C235- | C241- | C248- | C249- | C252- | C282+ | C286+ | C300+ | C311- | C328- | C330+ | C332- | C335- | C336- | C346- | C359+ | C373- | C374- | C376+ | C388+ | C424- | C425+ | C428+ | C435- | C439+ | C448+ | C465+ | C470- | C473- | C481+ | C484+ | C486+ | C487+ | C496+ | C501+ | C504- | C515+ | C520- | C525+ | C529- | C539+ | C540+ | C557+ | C582+ | C594+ | C603- | C608+ | C610- | C611+ | C615- | C621- | C627+ | C639- | C645+ | C649- | C656+ | C662+ | C667+ | C683- | C684- | C688- | C701- | C704- | C712- | C726+ | C736+ | C744+ | C746- | C747+ | C749- | C760+ | C773+ | C774- | C775- | C777+ | C801+ | C802+ | C858+ | C864+ | C865+ | C875- | C887+ | C895+ | C903- | C905+ | C917+ | C924+ | C930+ | C936+ | C941- | C946+ | C961- | C963+ | C969- | C972- | C976+ | C980- | C985- | C992- | C995- | C998- |
X3:  | C8- | C13+ | C29- | C33+ | C52- | C53+ | C55- | C57- | C79+ | C81- | C82- | C87- | C91+ | C102+ | C111+ | C113+ | C135- | C139- | C140- | C156+ | C170- | C180- | C182+ | C191+ | C199+ | C200- | C203+ | C204- | C210+ | C212- | C218- | C219- | C239- | C250+ | C251+ | C254- | C258- | C260+ | C264+ | C273- | C274+ | C275+ | C280- | C282+ | C284- | C293- | C294+ | C299- | C302+ | C305- | C311+ | C313- | C318+ | C325+ | C326+ | C333+ | C335- | C336+ | C337+ | C342+ | C343- | C345+ | C355+ | C358+ | C366- | C372- | C376- | C377- | C393- | C394- | C400+ | C401- | C408- | C416+ | C420+ | C422+ | C430- | C437+ | C442- | C452+ | C462+ | C475- | C481- | C483- | C489- | C494- | C499- | C501- | C521- | C524+ | C535- | C537+ | C541- | C558+ | C566+ | C574- | C575+ | C580- | C583+ | C585- | C593+ | C598+ | C604+ | C618+ | C624+ | C628- | C635+ | C642+ | C646+ | C667+ | C668- | C674+ | C677+ | C688+ | C695+ | C696- | C703- | C720- | C728- | C739+ | C744- | C754- | C764- | C767+ | C769+ | C784+ | C785- | C788- | C789- | C794- | C797- | C799- | C821+ | C829+ | C836- | C844- | C847+ | C866- | C869- | C875- | C879- | C898- | C899- | C925- | C929+ | C930- | C937- | C950+ | C955- | C960+ | C961+ | C970+ | C985- | C999+ |
X4:  | C24- | C26+ | C35+ | C46+ | C50+ | C58+ | C60+ | C67+ | C74- | C75- | C101+ | C102+ | C114+ | C123- | C150+ | C152- | C161- | C179+ | C180- | C183+ | C193+ | C197+ | C202- | C211+ | C214+ | C239+ | C241+ | C247+ | C248- | C250- | C256- | C259+ | C268- | C270- | C272+ | C277- | C278+ | C287+ | C288+ | C289- | C290+ | C293+ | C295+ | C296+ | C304+ | C312+ | C316- | C323+ | C325- | C338- | C340- | C346- | C347- | C353- | C356+ | C368+ | C370- | C379+ | C382- | C383+ | C391- | C403- | C406+ | C409+ | C416+ | C428- | C429+ | C433+ | C452- | C461- | C463- | C482- | C497- | C512- | C513- | C527+ | C549- | C550+ | C570- | C571- | C583+ | C584+ | C586- | C587- | C601- | C602- | C622+ | C626- | C631+ | C632- | C636- | C657+ | C663- | C664- | C665- | C673- | C686- | C690+ | C695+ | C706+ | C708- | C709+ | C715- | C717- | C732+ | C740- | C743+ | C746- | C757- | C764+ | C767- | C780+ | C791- | C792- | C798+ | C808+ | C812- | C822- | C824- | C825+ | C848+ | C851- | C859- | C872- | C878+ | C890- | C894+ | C897- | C898+ | C902+ | C907+ | C916- | C922+ | C939- | C943+ | C944+ | C953- | C966+ | C969+ | C981- | C984- | C985- |
X5:  | C7+ | C12+ | C21+ | C22- | C23- | C34- | C35- | C38+ | C39+ | C46- | C47- | C48+ | C66+ | C70+ | C78+ | C80+ | C84- | C85+ | C95+ | C98- | C101- | C102+ | C112+ | C115+ | C120- | C133- | C142+ | C152- | C157+ | C159+ | C160- | C170+ | C171+ | C174- | C180- | C181- | C182+ | C188+ | C189+ | C196- | C212+ | C213- | C225+ | C235+ | C238+ | C251- | C256+ | C257+ | C262+ | C266+ | C273+ | C277- | C278- | C303- | C307- | C331- | C332- | C344- | C354- | C355+ | C358+ | C365+ | C374- | C380- | C385- | C397+ | C410- | C422- | C426- | C429- | C433- | C436+ | C440- | C448+ | C450- | C451- | C455- | C460+ | C461+ | C466- | C469+ | C471+ | C475+ | C478- | C480- | C510- | C518- | C531+ | C534+ | C547+ | C548+ | C559- | C561+ | C562- | C568+ | C569- | C575- | C581- | C618+ | C631+ | C639+ | C652- | C663+ | C673- | C677+ | C685+ | C702+ | C703- | C705- | C707- | C713- | C723- | C729+ | C735- | C736- | C742+ | C750+ | C758- | C760+ | C766- | C770- | C779- | C787+ | C810+ | C830+ | C839+ | C841- | C844- | C855+ | C857- | C864- | C866+ | C871+ | C876+ | C880- | C886+ | C890- | C892+ | C908- | C909+ | C914+ | C917+ | C918+ | C920- | C921+ | C929- | C934- | C935- | C937+ | C971- | C974- | C988- | C990- | C998- |
X6:  | C1- | C3- | C7- | C11- | C20+ | C22- | C30+ | C31- | C32+ | C33- | C41- | C49+ | C50+ | C57- | C63- | C71- | C77- | C84+ | C88- | C93- | C105+ | C106- | C121- | C132+ | C135- | C136+ | C138+ | C141+ | C148+ | C158+ | C184+ | C192- | C221- | C222- | C227+ | C232- | C237- | C238+ | C245- | C246- | C254+ | C256+ | C271+ | C273+ | C276- | C280+ | C281- | C287- | C291+ | C299+ | C310- | C315+ | C317+ | C326- | C329+ | C341+ | C346+ | C361- | C364- | C371- | C373+ | C382+ | C386+ | C392+ | C398- | C407+ | C411+ | C413+ | C426- | C431- | C435+ | C444+ | C445+ | C446- | C449- | C459+ | C485+ | C487- | C488+ | C495+ | C498- | C508- | C514- | C525- | C526- | C527- | C530+ | C531- | C533- | C543- | C544- | C547+ | C557- | C565- | C571- | C573+ | C579- | C586+ | C587+ | C590- | C592+ | C593+ | C597- | C601+ | C615- | C616+ | C625+ | C634+ | C635- | C642+ | C654- | C664+ | C665+ | C669+ | C671- | C675- | C689+ | C694+ | C695+ | C697- | C698+ | C705+ | C707+ | C709- | C722- | C726- | C727+ | C734- | C739+ | C741+ | C752- | C780+ | C786- | C787+ | C792+ | C802- | C806- | C810+ | C816- | C819+ | C824- | C836- | C849+ | C856- | C859- | C877- | C881+ | C894+ | C903- | C904- | C909- | C911- | C919- | C928+ | C932+ | C943- | C944- | C956- | C964- | C975+ | C977- | C991- | C996- | C997+ |
X7:  | C14- | C27+ | C41+ | C52- | C58- | C59- | C68- | C71+ | C85- | C88+ | C91+ | C100- | C103- | C104- | C105- | C107+ | C112- | C117+ | C119+ | C124- | C130+ | C153- | C154- | C159- | C168- | C178- | C179+ | C190+ | C193+ | C204- | C208- | C217+ | C220- | C228+ | C236+ | C243+ | C247- | C259+ | C263+ | C278+ | C296- | C297- | C300- | C306+ | C323- | C333- | C339+ | C345+ | C353- | C370+ | C375- | C381+ | C396- | C399- | C406+ | C419+ | C437- | C442+ | C444- | C447+ | C459+ | C462+ | C464+ | C476- | C485- | C491+ | C504- | C505- | C508+ | C518- | C533- | C541+ | C560+ | C563+ | C564+ | C566+ | C568- | C586- | C589- | C595- | C623+ | C624+ | C625- | C628+ | C636- | C651- | C662- | C666+ | C672- | C674+ | C677+ | C689- | C716+ | C717- | C719- | C725- | C728- | C741+ | C742+ | C769+ | C771+ | C772+ | C773- | C778- | C783- | C795+ | C800+ | C804- | C811- | C814+ | C815+ | C825- | C851- | C852+ | C854+ | C859+ | C862- | C870+ | C874- | C895- | C898+ | C901+ | C911+ | C912- | C915+ | C921+ | C930- | C933+ | C942+ | C947- | C952+ | C954- | C962- | C968+ | C971+ | C996+ | C999+ |
X8:  | C3+ | C9- | C14- | C18+ | C19+ | C23- | C30- | C31+ | C60+ | C63+ | C66- | C70- | C73+ | C89+ | C99+ | C103- | C105+ | C106+ | C115+ | C119+ | C128- | C136- | C137+ | C153- | C162+ | C165- | C166- | C171- | C190- | C197+ | C199+ | C202- | C206- | C209+ | C218+ | C254- | C269- | C276+ | C279+ | C291+ | C303- | C304- | C309+ | C322+ | C330+ | C341- | C344- | C362+ | C364- | C371+ | C375+ | C381- | C392- | C394+ | C397- | C403- | C404+ | C414- | C420- | C433- | C449- | C465- | C483+ | C485+ | C493- | C497- | C506- | C522- | C536+ | C538+ | C539+ | C540- | C546+ | C555+ | C567+ | C582+ | C592+ | C606+ | C616+ | C620- | C627- | C633- | C644- | C650+ | C653+ | C656+ | C658+ | C660- | C661- | C664+ | C668- | C669+ | C673+ | C678- | C687+ | C696- | C714+ | C717- | C725+ | C731- | C738+ | C749- | C760- | C761+ | C766- | C771- | C789- | C797- | C805- | C813+ | C827- | C835+ | C845- | C855+ | C860+ | C861- | C877+ | C882- | C888- | C904+ | C907+ | C916- | C922- | C924+ | C928+ | C943+ | C955+ | C958- | C962- | C966+ | C982+ | C983- | C986+ | C989- | C992- |
X9:  | C8+ | C10- | C13+ | C15+ | C19+ | C21- | C32- | C34- | C35- | C40- | C46+ | C49+ | C50+ | C51- | C54- | C55+ | C57- | C69- | C76+ | C87+ | C90- | C92+ | C94- | C111+ | C116- | C125- | C130+ | C133- | C138- | C143- | C144+ | C152+ | C155- | C163+ | C168+ | C169+ | C186- | C187+ | C188- | C191- | C194- | C197+ | C198+ | C206+ | C217+ | C226- | C229- | C230- | C235+ | C236- | C240+ | C242- | C248+ | C250+ | C251+ | C255- | C263- | C264+ | C269- | C276- | C283+ | C289- | C296- | C300+ | C305- | C327+ | C330- | C337- | C350+ | C352+ | C356+ | C362+ | C367+ | C386- | C389- | C397- | C415- | C423+ | C427- | C428- | C440- | C443- | C447- | C453- | C454- | C460+ | C463- | C470- | C483- | C484+ | C500- | C502+ | C507- | C521- | C523- | C529- | C540- | C558+ | C573+ | C594- | C595- | C597- | C599+ | C603- | C606- | C611+ | C622+ | C626- | C630+ | C641+ | C647+ | C648+ | C670+ | C684+ | C686- | C687+ | C688+ | C690- | C697- | C698- | C700+ | C708+ | C709- | C718- | C720- | C722- | C730- | C732+ | C733- | C737- | C740+ | C743- | C753- | C754- | C755+ | C758- | C759+ | C763+ | C768+ | C776+ | C779+ | C780- | C781- | C782+ | C786- | C794+ | C796- | C799- | C802- | C809+ | C816- | C821+ | C827- | C828+ | C830+ | C831+ | C838+ | C851- | C863+ | C872- | C875+ | C879- | C883+ | C885+ | C894- | C896- | C901- | C905+ | C908+ | C913+ | C916- | C935- | C936+ | C954- | C965+ | C968- | C971- | C983- | C988+ | C989- | C994+ |
X10:  | C5+ | C16+ | C17+ | C20- | C27+ | C29+ | C43+ | C52- | C54- | C56- | C61- | C67+ | C94- | C100+ | C110- | C111- | C128- | C129+ | C140+ | C147+ | C148- | C149- | C150+ | C158+ | C168- | C173- | C185+ | C189- | C216- | C221- | C226- | C237- | C240+ | C242+ | C245+ | C246+ | C271+ | C272+ | C277- | C280+ | C283+ | C292+ | C298+ | C312+ | C319+ | C341+ | C357- | C358+ | C365- | C368- | C369+ | C377- | C382- | C414- | C427+ | C434+ | C438- | C454+ | C455- | C466- | C474+ | C477+ | C478+ | C479- | C490- | C493+ | C509- | C520+ | C527+ | C537+ | C538- | C542- | C553+ | C555- | C561+ | C565+ | C571- | C576+ | C579- | C580- | C599- | C600+ | C611+ | C614- | C616+ | C621+ | C622- | C638+ | C639- | C649+ | C653- | C658+ | C665+ | C666- | C702- | C705- | C711- | C713+ | C716- | C725- | C740+ | C751- | C765- | C767+ | C771- | C775- | C782+ | C783- | C785+ | C793+ | C799+ | C807- | C810- | C812+ | C822- | C826+ | C834+ | C838+ | C839+ | C840- | C842- | C844- | C846- | C850+ | C856+ | C866- | C888- | C900+ | C901- | C912- | C914+ | C919- | C920- | C923- | C928+ | C931- | C940+ | C947- | C949+ | C953- | C957+ | C973+ | C981+ | C986- | C987+ | C994+ |
X11:  | C2+ | C4+ | C10+ | C17+ | C20- | C28+ | C31+ | C36- | C42- | C61+ | C64- | C66- | C69- | C82- | C86- | C92- | C93+ | C97+ | C106+ | C107+ | C108- | C113+ | C117- | C118- | C120+ | C126+ | C140+ | C160- | C164+ | C179- | C183+ | C184- | C185- | C187- | C190- | C195- | C205+ | C224- | C225+ | C230+ | C233+ | C236- | C238+ | C244+ | C255+ | C260- | C266- | C274- | C281+ | C287- | C290+ | C293- | C302+ | C308+ | C310- | C313+ | C323+ | C327+ | C351- | C361- | C366- | C380+ | C381- | C386- | C391- | C407+ | C411- | C412+ | C414+ | C421- | C423+ | C430+ | C432- | C440+ | C441+ | C442+ | C446- | C447+ | C458+ | C464+ | C472+ | C477- | C482- | C489- | C494- | C505- | C516- | C523+ | C528- | C534+ | C545- | C550+ | C556+ | C569+ | C575+ | C600- | C602+ | C605+ | C609- | C613+ | C640+ | C643+ | C647+ | C651+ | C653+ | C654- | C655+ | C661+ | C674+ | C685- | C690+ | C691+ | C692+ | C694- | C699+ | C700- | C710+ | C727- | C748+ | C757+ | C765- | C774+ | C776+ | C777+ | C779+ | C788+ | C790- | C791- | C794- | C797- | C806- | C818+ | C819+ | C828+ | C832- | C834- | C842+ | C843- | C852- | C853- | C868- | C876- | C880- | C882- | C885+ | C889- | C891- | C897- | C903- | C913- | C914+ | C917- | C918+ | C927+ | C941- | C947+ | C950- | C956- | C967+ | C978+ | C980- | C987+ | C995- |
X12:  | C4- | C7+ | C9+ | C11- | C14+ | C18+ | C25- | C30+ | C36+ | C48+ | C49- | C58- | C60+ | C64- | C77+ | C78- | C83+ | C86+ | C90+ | C100+ | C113+ | C126+ | C137- | C146- | C154- | C155- | C162- | C165+ | C174+ | C177+ | C187+ | C189+ | C203- | C205+ | C207- | C210- | C211+ | C217- | C223+ | C224+ | C243+ | C246+ | C253+ | C261+ | C262+ | C263+ | C270+ | C288- | C301- | C308- | C312+ | C333- | C334- | C337+ | C340+ | C342+ | C351+ | C360- | C363- | C365- | C387+ | C390- | C391- | C395- | C401+ | C405+ | C408+ | C439+ | C441+ | C456+ | C457+ | C458- | C461+ | C466+ | C467+ | C468+ | C472- | C474+ | C482+ | C494+ | C496+ | C497+ | C499+ | C506- | C509- | C510+ | C515+ | C517- | C519+ | C532+ | C538- | C554+ | C560- | C563+ | C567- | C574- | C578- | C582- | C585- | C590- | C591- | C593- | C597- | C600- | C606+ | C607+ | C608- | C613- | C620- | C635- | C636+ | C637+ | C644+ | C672+ | C676- | C680+ | C682- | C691- | C693- | C697+ | C699- | C701- | C708- | C714+ | C718- | C719+ | C721+ | C724- | C748+ | C752- | C784- | C787- | C792- | C798- | C804- | C805- | C817- | C819- | C822- | C858- | C860- | C862+ | C863+ | C868- | C869+ | C874- | C884+ | C890+ | C904- | C918- | C923- | C936+ | C949- | C954- | C965+ | C978- | C983+ | C984+ | C993- |
X13:  | C6+ | C12- | C15+ | C17- | C25- | C28+ | C40- | C54- | C62+ | C67+ | C72+ | C76- | C103- | C109- | C121+ | C133+ | C149+ | C161- | C164+ | C172- | C178- | C181+ | C182- | C195- | C204+ | C228- | C229- | C232+ | C249+ | C258- | C274- | C284+ | C288+ | C295- | C297+ | C301+ | C314+ | C316+ | C317- | C319+ | C324- | C334- | C335+ | C345- | C347- | C349- | C372- | C384+ | C387- | C388+ | C392+ | C393+ | C395- | C398+ | C402- | C407- | C416+ | C417- | C457+ | C459+ | C468+ | C470+ | C471- | C481+ | C491+ | C495- | C503+ | C505- | C507+ | C512- | C514- | C517- | C522- | C528- | C530- | C535- | C536+ | C542- | C545- | C551+ | C552- | C558- | C560- | C564+ | C574- | C578+ | C580- | C584+ | C588+ | C589- | C591+ | C612+ | C621- | C637- | C640+ | C641+ | C657- | C659+ | C660- | C663- | C671- | C672- | C680+ | C682+ | C685- | C687- | C693+ | C700- | C702- | C706+ | C710- | C722- | C731- | C733+ | C735+ | C736+ | C743+ | C745- | C755- | C789+ | C805- | C809- | C817- | C820- | C831- | C843+ | C855- | C857- | C865- | C873- | C881- | C882- | C883- | C884- | C888+ | C891+ | C900- | C906+ | C910- | C921- | C924- | C927+ | C934+ | C935- | C937+ | C938- | C940- | C946- | C960+ | C962- | C977+ | C988- | C993- | C995- |
X14:  | C5+ | C6+ | C12+ | C21- | C28+ | C51- | C53- | C55+ | C59+ | C63+ | C68- | C81+ | C86+ | C104- | C129+ | C136+ | C138- | C145- | C149- | C150+ | C175- | C177+ | C183- | C193- | C201+ | C207+ | C224+ | C233+ | C237- | C257- | C259- | C261- | C265- | C266+ | C267- | C271+ | C275+ | C281- | C304+ | C305+ | C309+ | C315- | C321- | C338+ | C348+ | C349+ | C357- | C360+ | C378+ | C383- | C389- | C396+ | C411- | C412- | C417- | C419- | C421+ | C429- | C432- | C436- | C439- | C443+ | C455+ | C462+ | C478- | C486- | C496- | C502- | C508- | C513- | C519+ | C520+ | C521+ | C524- | C526+ | C531- | C536- | C543+ | C544+ | C553+ | C562+ | C564+ | C568- | C577+ | C608+ | C612+ | C613- | C617+ | C619- | C624+ | C625- | C628- | C650- | C654+ | C655- | C659+ | C660- | C676- | C680+ | C698+ | C707- | C712+ | C713+ | C719+ | C724+ | C737+ | C738- | C745+ | C748- | C750+ | C751+ | C755- | C756- | C758+ | C766- | C772+ | C781- | C784+ | C785+ | C796- | C811+ | C818- | C823- | C827+ | C829+ | C834- | C835+ | C836- | C842- | C845- | C846- | C864+ | C867- | C871+ | C880- | C892- | C893+ | C899+ | C906- | C908- | C919- | C926- | C932- | C933- | C938+ | C948+ | C952+ | C957- | C963- | C974- | C979- | C981- | C986- | C990+ | C994- | C999+ | C1000+ |
X15:  | C2- | C3+ | C24+ | C27- | C41- | C42+ | C43- | C47+ | C56- | C62+ | C65- | C77+ | C79+ | C81- | C98+ | C107+ | C110+ | C114+ | C122+ | C124- | C127+ | C141+ | C146- | C147- | C154+ | C155- | C166- | C169+ | C173+ | C176+ | C188- | C201+ | C203+ | C205- | C206- | C210- | C213+ | C216- | C223+ | C225+ | C267+ | C268+ | C299+ | C303- | C314- | C318+ | C324- | C327- | C350- | C352+ | C361- | C364- | C367- | C376- | C387- | C389+ | C393+ | C395- | C410- | C420+ | C424+ | C425+ | C426+ | C431+ | C438+ | C456+ | C465+ | C471- | C488- | C491- | C492- | C503- | C504+ | C511- | C513- | C533- | C541- | C543+ | C562- | C572+ | C577- | C578- | C596- | C605- | C610+ | C614+ | C633+ | C637+ | C642+ | C646- | C675+ | C679+ | C681- | C692+ | C723- | C728- | C731+ | C738+ | C739+ | C745- | C759+ | C769+ | C770+ | C777+ | C790+ | C807- | C814+ | C824- | C825- | C835+ | C841+ | C847- | C861- | C869+ | C893- | C896- | C910+ | C911- | C922+ | C925+ | C926- | C934+ | C948+ | C950- | C957- | C958+ | C961+ | C973+ | C975- | C990- | C991- | C997+ |
X16:  | C1- | C22+ | C25+ | C26- | C32- | C33- | C34+ | C36- | C37+ | C38+ | C43- | C56- | C65+ | C78+ | C83+ | C84+ | C101+ | C117+ | C121- | C122+ | C142+ | C143+ | C144- | C145+ | C146+ | C151- | C165- | C167- | C169- | C175- | C194- | C201- | C209+ | C227+ | C231+ | C260+ | C275+ | C291+ | C295- | C307+ | C315+ | C316+ | C318+ | C322+ | C328+ | C336- | C348- | C349- | C359- | C360- | C369+ | C370+ | C385+ | C390- | C396- | C403- | C404- | C412+ | C413+ | C415- | C431+ | C438- | C441- | C445- | C452- | C453- | C467+ | C476+ | C487+ | C493- | C495+ | C510+ | C516+ | C524- | C525- | C528+ | C530- | C539- | C545- | C550+ | C559+ | C566- | C573- | C585- | C591+ | C605+ | C609+ | C627- | C638+ | C640- | C650- | C657+ | C661- | C670+ | C679+ | C684- | C694- | C712- | C714- | C716+ | C720- | C721+ | C723+ | C724- | C729- | C732- | C744+ | C747+ | C750+ | C754- | C756- | C770+ | C782- | C788- | C791+ | C803- | C809- | C811- | C813- | C818+ | C820- | C839+ | C847+ | C849- | C857+ | C861- | C872+ | C878+ | C883+ | C886- | C887+ | C897+ | C910+ | C933+ | C938+ | C946+ | C953+ | C963- | C964+ | C967+ | C970- | C976+ | C993- | C997+ |
X17:  | C4- | C9- | C15- | C19- | C40- | C45- | C68- | C75+ | C88- | C89+ | C90- | C94- | C95- | C97+ | C108- | C109+ | C118- | C125+ | C131- | C132+ | C134- | C139- | C151+ | C172- | C181+ | C185- | C186+ | C199- | C200+ | C202+ | C207+ | C208- | C219- | C228+ | C240- | C247+ | C249- | C261- | C265+ | C269+ | C272- | C282+ | C289+ | C298- | C320- | C334+ | C338- | C339- | C343- | C348+ | C350- | C351+ | C354- | C362- | C366+ | C367+ | C371- | C372- | C373- | C374- | C375- | C383+ | C415- | C418- | C427+ | C434+ | C445- | C446- | C450- | C454+ | C457+ | C469- | C472+ | C475- | C479+ | C480- | C489- | C490- | C492- | C502+ | C511+ | C518+ | C519+ | C522- | C544+ | C546- | C548- | C553- | C557+ | C559- | C563- | C569+ | C572+ | C581+ | C587- | C594+ | C604- | C607+ | C614- | C619+ | C629+ | C630+ | C632- | C643- | C649+ | C652+ | C679- | C681+ | C682- | C704- | C710- | C726- | C737- | C742+ | C747+ | C756+ | C761+ | C763- | C765+ | C778- | C781+ | C783- | C800+ | C801- | C803+ | C816- | C820+ | C821- | C837+ | C850- | C852+ | C854+ | C863+ | C873- | C879- | C887+ | C893+ | C899+ | C900+ | C905+ | C906- | C907- | C913- | C925- | C932- | C945+ | C951- | C952+ | C959- | C964+ | C989- | C1000- |
X18:  | C13- | C16+ | C42- | C44+ | C61+ | C65- | C71+ | C72+ | C73- | C74- | C82+ | C83- | C92- | C93+ | C96- | C99- | C118- | C123+ | C126- | C127+ | C130- | C134- | C139- | C151+ | C159- | C163- | C167- | C174+ | C176+ | C178+ | C192- | C196- | C198- | C213+ | C215+ | C216+ | C222- | C223+ | C226- | C230- | C231- | C234+ | C243+ | C252- | C253+ | C270+ | C286+ | C306+ | C309+ | C311- | C320- | C321+ | C326- | C331- | C332- | C340+ | C359- | C363- | C379- | C390+ | C409- | C410- | C413- | C417- | C418+ | C422+ | C424+ | C435- | C444+ | C451- | C456+ | C469+ | C492- | C501+ | C509- | C511- | C549- | C552- | C556- | C565+ | C576+ | C583+ | C584- | C588- | C589+ | C596+ | C598- | C603+ | C609+ | C612+ | C617+ | C634+ | C652- | C655- | C667- | C668- | C675+ | C678- | C683- | C693+ | C699+ | C701- | C703- | C711- | C715- | C721- | C727- | C730+ | C733- | C752+ | C759+ | C762+ | C763- | C764+ | C776+ | C796+ | C798- | C808- | C830+ | C833- | C841+ | C854- | C873- | C876- | C878+ | C886- | C889+ | C892+ | C902+ | C909- | C927+ | C931- | C939- | C948- | C949+ | C951- | C955- | C959- | C969- | C970+ | C972- | C978+ | C979- | C982- | C984+ | C991+ | C996+ | C998+ | C1000+ |
X19:  | C5+ | C23+ | C24- | C38- | C39+ | C44+ | C45- | C48- | C80- | C85- | C96- | C97- | C98+ | C116- | C122- | C131- | C145- | C147- | C148+ | C156+ | C176- | C192+ | C208- | C218+ | C219+ | C220+ | C231- | C232- | C233+ | C241- | C253- | C257- | C262- | C264- | C279- | C285- | C301+ | C313+ | C317- | C319+ | C321+ | C329- | C339- | C344- | C347- | C352+ | C356+ | C377- | C378- | C388+ | C394- | C399+ | C402+ | C404- | C405- | C409- | C418+ | C421- | C430+ | C432+ | C434- | C451+ | C453+ | C463- | C473- | C474- | C484+ | C498- | C499- | C500+ | C503- | C516- | C532+ | C547+ | C551- | C561- | C570- | C577+ | C592+ | C601- | C610+ | C615- | C618+ | C623+ | C629+ | C632- | C641- | C648- | C662+ | C666+ | C678- | C683+ | C686- | C692+ | C706- | C715+ | C718- | C735+ | C746- | C753- | C761- | C762- | C768+ | C774- | C778- | C793+ | C800+ | C807+ | C814- | C815- | C823+ | C828+ | C831- | C832- | C833- | C838- | C845- | C846+ | C848+ | C849- | C853+ | C856+ | C862+ | C871- | C877+ | C885- | C902+ | C931+ | C939+ | C941+ | C942- | C945+ | C951- | C956+ | C960- | C966- | C972- | C974+ | C980- |
X20:  | C2+ | C8+ | C18- | C37+ | C53+ | C69+ | C70- | C76- | C79- | C95- | C104+ | C108+ | C114- | C125+ | C128+ | C131+ | C135- | C141+ | C143- | C157+ | C160- | C161+ | C171- | C177- | C211+ | C215- | C220+ | C222- | C229+ | C234- | C244- | C252+ | C268+ | C284- | C285+ | C290+ | C292+ | C294- | C297- | C298- | C302+ | C306+ | C307- | C314+ | C322+ | C324+ | C329- | C331- | C353+ | C355+ | C357+ | C363- | C368- | C378- | C379- | C384+ | C398- | C399+ | C400+ | C402+ | C425- | C437+ | C449+ | C450- | C458+ | C460+ | C464- | C467+ | C473+ | C476+ | C479+ | C480- | C488+ | C507- | C512+ | C526+ | C534+ | C549+ | C552- | C554- | C555+ | C576- | C581- | C596- | C598+ | C602+ | C604- | C607+ | C619- | C626- | C630- | C634+ | C638- | C643- | C645+ | C646- | C647+ | C651- | C658+ | C659+ | C669+ | C671- | C681- | C689- | C696- | C704+ | C729+ | C730- | C734- | C751- | C753- | C757- | C768- | C773+ | C786- | C795- | C804+ | C808+ | C812+ | C815- | C823+ | C826+ | C829+ | C832+ | C833- | C837- | C840+ | C848+ | C853- | C865+ | C867- | C868- | C870+ | C874- | C881+ | C895+ | C896+ | C912+ | C915+ | C926- | C944- | C973- | C975+ | C976+ | C977- | C987- |

